{
  "schemaVersion": 1,
  "id": "auto-feeder",
  "version": "${version}",

  "name": "Auto Feeder",
  "description": "A simple mod that feeds nearby entities!",
  "authors": [
    "Michael Bartosh <mike.ebj@protonmail.com>"
  ],
  "contact": {},

  "license": "ARR",
  "icon": "assets/auto-feeder/icon.png",

  "environment": "*",
  "entrypoints": {
    "main": [
      "us.mikebartosh.minecraft.autofeeder.AutoFeeder"
    ],
    "modmenu": [
      "us.mikebartosh.minecraft.autofeeder.AutoFeederModMenu"
    ]
  },
  "mixins": [
  ],

  "depends": {
    "fabricloader": ">=0.14.11",
    "cloth-config2": ">=9.1.104",
    "fabric": "*",
    "minecraft": ">=1.19.3",
    "java": ">=17"
  },
  "suggests": {}
}
